{
  "posts": [
    {
      "id": 1,
      "title": "json-server",
      "author": "typicode"
    }
  ],
  "comments": [
    {
      "id": 1,
      "body": "some comment",
      "postId": 1
    }
  ],
  "profile": {
    "name": "typicode"
  },
  "users": [
    {
      "email": "test@gmail.com",
      "password": "$2a$10$xPtQoKZjTSPa84J97ciVvOmPIJQRFfD/CvS7xqlH75HxJxGzGJQ0y",
      "username": "admin",
      "id": 1
    },
    {
      "email": "testme@xpto.com",
      "password": "$2a$10$f651NfxQuffkeHZM1.EAYO7n8.trMYZNk2Y2sVxqZ2wyKuYerEnsS",
      "username": "myadmin123kkkk",
      "id": 2
    }
  ]
}